59677.173388	436607446.77	1.0	579
59677.173505	436606249.20	1.0	579
59677.173856	436600698.00	1.0	579
59677.173914	436599778.91	1.0	579
59677.173972	436598713.41	1.0	579
59677.174013	436597934.65	1.0	579
59677.174030	436597630.05	1.0	579
59677.174146	436595916.75	1.0	579
59677.174204	436595260.08	1.0	579
59677.174614	436591973.92	1.0	579
59677.174673	436591846.51	1.0	579
59677.174713	436591653.64	1.0	579
59677.174730	436591576.30	1.0	579
59677.174788	436591339.45	1.0	579
59677.175139	436590832.11	1.0	579
59677.175197	436590839.81	1.0	579
59677.175255	436590661.15	1.0	579
59677.175312	436590589.90	1.0	579
59677.175412	436590485.13	1.0	579
59677.175722	436590358.90	1.0	579
59677.175763	436590238.86	1.0	579
59677.175780	436590230.36	1.0	579
59677.175838	436590203.53	1.0	579
59677.250264	436610040.58	1.0	2107
59677.250325	436609952.35	1.0	2107
59677.250383	436609858.10	1.0	2107
59677.250422	436609785.87	1.0	2107
59677.250796	436608012.21	1.0	2107
59677.250915	436607005.55	1.0	2107
59677.251035	436605764.66	1.0	2107
59677.251212	436603067.03	1.0	2107
59677.251331	436600802.83	1.0	2107
59677.251449	436598695.58	1.0	2107
59677.251489	436597776.06	1.0	2107
59677.251617	436595928.65	1.0	2107
59677.251672	436595083.99	1.0	2107
59677.251735	436594358.44	1.0	2107
59677.251910	436593041.33	1.0	2107
59677.252028	436592342.93	1.0	2107
59677.252149	436591801.89	1.0	2107
59677.279160	436610459.35	1.0	1861
59677.279203	436610561.58	1.0	1861
59677.279219	436610453.35	1.0	1861
59677.279278	436610446.56	1.0	1861
59677.279395	436610429.83	1.0	1861
59677.279452	436610526.42	1.0	1861
59677.279512	436610408.22	1.0	1861
59677.279552	436610399.65	1.0	1861
59677.279570	436610395.33	1.0	1861
59677.279629	436610487.19	1.0	1861
59677.279688	436610363.95	1.0	1861
59677.279746	436610451.68	1.0	1861
59677.279922	436610058.64	1.0	1861
59677.279981	436609920.79	1.0	1861
59677.280253	436609698.45	1.0	1861
59677.280446	436608982.15	1.0	1861
59677.280503	436608965.41	1.0	1861
59677.280562	436608279.68	1.0	1861
59677.280603	436608368.93	1.0	1861
59677.280737	436607061.05	1.0	1861
59677.280797	436605849.98	1.0	1861
59677.280854	436604675.02	1.0	1861
59677.280912	436603379.22	1.0	1861
59677.280955	436602143.37	1.0	1861
59677.280971	436601925.28	1.0	1861
59677.281029	436600212.88	1.0	1861
59677.281206	436595602.72	1.0	1861
59677.281729	436590473.97	1.0	1861
59677.281904	436590066.67	1.0	1861
59677.282139	436589769.00	1.0	1861
59677.282195	436589677.20	1.0	1861
59677.282254	436589595.24	1.0	1861
59677.282314	436589524.51	1.0	1861
59677.282489	436589371.87	1.0	1861
59677.282692	436589471.49	1.0	1861
59677.283012	436589476.05	1.0	1861
59677.283053	436589573.87	1.0	1861
59677.283070	436589570.50	1.0	1861
59677.283130	436589346.45	1.0	1861
59677.283188	436589336.94	1.0	1861
59677.283246	436589541.44	1.0	1861
59677.283304	436589427.61	1.0	1861
59677.283363	436589527.59	1.0	1861
59677.344496	436610389.80	1.0	1093
59677.344847	436608941.48	1.0	1093
59677.344905	436608519.79	1.0	1093
59677.345081	436606543.60	1.0	1093
59677.345256	436603763.31	1.0	1093
59677.345314	436602577.03	1.0	1093
59677.345489	436598811.40	1.0	1093
59677.345530	436597976.30	1.0	1093
59677.345606	436596679.44	1.0	1093
59677.345664	436596020.22	1.0	1093
59677.345721	436595239.11	1.0	1093
59677.345839	436593853.20	1.0	1093
59677.345897	436593468.01	1.0	1093
59677.346305	436591353.16	1.0	1093
59677.346656	436590808.32	1.0	1093
59677.346713	436590697.37	1.0	1093
59677.300923	436610546.21	1.0	500
59677.300983	436610519.01	1.0	500
59677.301081	436610370.69	1.0	500
59677.301216	436610476.19	1.0	500
59677.301508	436609704.89	1.0	500
59677.301565	436609721.73	1.0	500
59677.301625	436609530.72	1.0	500
59677.301683	436609426.09	1.0	500
59677.301741	436609017.29	1.0	500
59677.301783	436608823.70	1.0	500
59677.301801	436608875.72	1.0	500
59677.301858	436608527.03	1.0	500
59677.301917	436608148.45	1.0	500
59677.301974	436607743.16	1.0	500
59677.302033	436607298.89	1.0	500
59677.302090	436606821.32	1.0	500
59677.302208	436605495.02	1.0	500
59677.302267	436604345.32	1.0	500
59677.302325	436603412.12	1.0	500
59677.302384	436602282.24	1.0	500
59677.302557	436599090.61	1.0	500
59677.302617	436598125.28	1.0	500
59677.302676	436597010.62	1.0	500
59677.302734	436596167.68	1.0	500
59677.302908	436594070.56	1.0	500
59677.302966	436593528.34	1.0	500
59677.303026	436593063.45	1.0	500
59677.428224	436608384.58	1.0	2029
59677.428286	436607930.67	1.0	2029
59677.428392	436607296.72	1.0	2029
59677.428411	436607136.24	1.0	2029
59677.428473	436606396.38	1.0	2029
59677.428535	436605685.31	1.0	2029
59677.428660	436604097.68	1.0	2029
59677.428722	436603096.20	1.0	2029
59677.428782	436602333.47	1.0	2029
59677.428784	436602316.21	1.0	2029
59677.428909	436600440.71	1.0	2029
59677.429031	436598856.88	1.0	2029
59677.429093	436598002.25	1.0	2029
59677.429095	436598022.58	1.0	2029
59677.429137	436597423.60	1.0	2029
59677.429158	436597111.56	1.0	2029
59677.429218	436596480.69	1.0	2029
59677.429220	436596441.59	1.0	2029
59677.429281	436595840.62	1.0	2029
59677.429343	436595460.78	1.0	2029
59677.429405	436594732.77	1.0	2029
59677.429592	436593430.99	1.0	2029
59677.429654	436592909.36	1.0	2029
59677.429716	436592541.83	1.0	2029
59677.429778	436592224.05	1.0	2029
59677.429841	436592101.47	1.0	2029
59677.429884	436591701.08	1.0	2029
59677.430089	436591271.40	1.0	2029
59677.430214	436591064.00	1.0	2029
59677.430256	436591043.80	1.0	2029
59677.430258	436590981.57	1.0	2029
59677.430276	436591039.74	1.0	2029
59677.430461	436590828.49	1.0	2029
59677.430524	436590772.61	1.0	2029
59677.430587	436590674.64	1.0	2029
